{
    "FlightInfo":[
        {
            "flight_number": "VA304",
            "departure_time": "05:55 23/08/2019",
            "arrival_time": "8:20 23/08/2019",
            "origin": "BNE",
            "destination": "MEL",
            "airline": "Virgin",
            "aircraft_model": "unknown"
        },
        {
            "flight_number": "VA308",
            "departure_time": "06:55 23/08/2019",
            "arrival_time": "09:20 23/08/2019",
            "origin": "BNE",
            "destination": "MEL",
            "airline": "Virgin",
            "aircraft_model": "unknown"
        },
        {
            "flight_number": "VA314",
            "departure_time": "07:55 23/08/2019",
            "arrival_time": "10:20 23/08/2019",
            "origin": "BNE",
            "destination": "MEL",
            "airline": "Virgin",
            "aircraft_model": "unknown"
        },
        {
            "flight_number": "VA318",
            "departure_time": "08:55 23/08/2019",
            "arrival_time": "11:20 23/08/2019",
            "origin": "BNE",
            "destination": "MEL",
            "airline": "Virgin",
            "aircraft_model": "unknown"
        },
        {
            "flight_number": "VA322",
            "departure_time": "09:55 23/08/2019",
            "arrival_time": "12:20 23/08/2019",
            "origin": "BNE",
            "destination": "MEL",
            "airline": "Virgin",
            "aircraft_model": "unknown"
        },
        {
            "flight_number": "VA324",
            "departure_time": "10:55 23/08/2019",
            "arrival_time": "13:20 23/08/2019",
            "origin": "BNE",
            "destination": "MEL",
            "airline": "Virgin",
            "aircraft_model": "unknown"
        },
        {
            "flight_number": "VA326",
            "departure_time": "11:55 23/08/2019",
            "arrival_time": "14:20 23/08/2019",
            "origin": "BNE",
            "destination": "MEL",
            "airline": "Virgin",
            "aircraft_model": "unknown"
        },
        {
            "flight_number": "VA328",
            "departure_time": "12:55 23/08/2019",
            "arrival_time": "15:20 23/08/2019",
            "origin": "BNE",
            "destination": "MEL",
            "airline": "Virgin",
            "aircraft_model": "unknown"
        },
        {
            "flight_number": "VA332",
            "departure_time": "13:55 23/08/2019",
            "arrival_time": "16:20 23/08/2019",
            "origin": "BNE",
            "destination": "MEL",
            "airline": "Virgin",
            "aircraft_model": "unknown"
        },
        {
            "flight_number": "VA334",
            "departure_time": "14:55 23/08/2019",
            "arrival_time": "17:20 23/08/2019",
            "origin": "BNE",
            "destination": "MEL",
            "airline": "Virgin",
            "aircraft_model": "unknown"
        },
        {
            "flight_number": "VA336",
            "departure_time": "15:55 23/08/2019",
            "arrival_time": "18:20 23/08/2019",
            "origin": "BNE",
            "destination": "MEL",
            "airline": "Virgin",
            "aircraft_model": "unknown"
        },
        {
            "flight_number": "VA342",
            "departure_time": "16:55 23/08/2019",
            "arrival_time": "19:20 23/08/2019",
            "origin": "BNE",
            "destination": "MEL",
            "airline": "Virgin",
            "aircraft_model": "unknown"
        },
        {
            "flight_number": "VA346",
            "departure_time": "17:55 23/08/2019",
            "arrival_time": "20:20 23/08/2019",
            "origin": "BNE",
            "destination": "MEL",
            "airline": "Virgin",
            "aircraft_model": "unknown"
        },
        {
            "flight_number": "VA352",
            "departure_time": "18:55 23/08/2019",
            "arrival_time": "21:20 23/08/2019",
            "origin": "BNE",
            "destination": "MEL",
            "airline": "Virgin",
            "aircraft_model": "unknown"
        },
        {
            "flight_number": "VA356",
            "departure_time": "20:55 23/08/2019",
            "arrival_time": "23:20 23/08/2019",
            "origin": "BNE",
            "destination": "MEL",
            "airline": "Virgin",
            "aircraft_model": "unknown"
        },
        {
            "flight_number": "VA358",
            "departure_time": "21:55 23/08/2019",
            "arrival_time": "00:20 24/08/2019",
            "origin": "BNE",
            "destination": "MEL",
            "airline": "Virgin",
            "aircraft_model": "unknown"
        }
    ],
    "FlightStatus": [
        {
            "flight": "VA304",
            "departure_time": "05:55 23/08/2019",
            "departure_status": "scheduled",
            "arrival_time": "08:20 23/08/2019",
            "arrival_status": "scheduled"
        },
        {
            "flight": "VA308",
            "departure_time": "06:55 23/08/2019",
            "departure_status": "scheduled",
            "arrival_time": "09:20 23/08/2019",
            "arrival_status": "scheduled"
        },
        {
            "flight": "VA314",
            "departure_time": "07:55 23/08/2019",
            "departure_status": "scheduled",
            "arrival_time": "10:20 23/08/2019",
            "arrival_status": "scheduled"
        },
        {
            "flight": "VA318",
            "departure_time": "08:55 23/08/2019",
            "departure_status": "scheduled",
            "arrival_time": "11:20 23/08/2019",
            "arrival_status": "scheduled"
        },
        {
            "flight": "VA322",
            "departure_time": "09:55 23/08/2019",
            "departure_status": "scheduled",
            "arrival_time": "12:20 23/08/2019",
            "arrival_status": "scheduled"
        },
        {
            "flight": "VA324",
            "departure_time": "10:55 23/08/2019",
            "departure_status": "scheduled",
            "arrival_time": "13:20 23/08/2019",
            "arrival_status": "scheduled"
        },
        {
            "flight": "VA326",
            "departure_time": "11:55 23/08/2019",
            "departure_status": "scheduled",
            "arrival_time": "14:20 23/08/2019",
            "arrival_status": "scheduled"
        },
        {
            "flight": "VA328",
            "departure_time": "12:55 23/08/2019",
            "departure_status": "scheduled",
            "arrival_time": "15:20 23/08/2019",
            "arrival_status": "scheduled"
        },
        {
            "flight": "VA332",
            "departure_time": "13:55 23/08/2019",
            "departure_status": "scheduled",
            "arrival_time": "16:20 23/08/2019",
            "arrival_status": "scheduled"
        },
        {
            "flight": "VA334",
            "departure_time": "14:55 23/08/2019",
            "departure_status": "scheduled",
            "arrival_time": "17:20 23/08/2019",
            "arrival_status": "scheduled"
        },
        {
            "flight": "VA336",
            "departure_time": "15:55 23/08/2019",
            "departure_status": "scheduled",
            "arrival_time": "18:20 23/08/2019",
            "arrival_status": "scheduled"
        },
        {
            "flight": "VA342",
            "departure_time": "16:55 23/08/2019",
            "departure_status": "scheduled",
            "arrival_time": "19:20 23/08/2019",
            "arrival_status": "scheduled"
        },
        {
            "flight": "VA346",
            "departure_time": "17:55 23/08/2019",
            "departure_status": "scheduled",
            "arrival_time": "20:20 23/08/2019",
            "arrival_status": "scheduled"
        },
        {
            "flight": "VA352",
            "departure_time": "18:55 23/08/2019",
            "departure_status": "scheduled",
            "arrival_time": "21:20 23/08/2019",
            "arrival_status": "scheduled"
        },
        {
            "flight": "VA356",
            "departure_time": "20:55 23/08/2019",
            "departure_status": "scheduled",
            "arrival_time": "23:20 23/08/2019",
            "arrival_status": "scheduled"
        },
        {
            "flight": "VA358",
            "departure_time": "21:55 23/08/2019",
            "departure_status": "scheduled",
            "arrival_time": "00:20 24/08/2019",
            "arrival_status": "scheduled"
        }
    ],
    "Airfare": [
        {
            "flight": "VA304",
            "fare_class": "Elevate",
            "fare_type": "One Way",
            "fare": 249
        },
        {
            "flight": "VA304",
            "fare_class": "Freedom",
            "fare_type": "One Way",
            "fare": 509
        },
        {
            "flight": "VA304",
            "fare_class": "Business",
            "fare_type": "One Way",
            "fare": 799
        },
        {
            "flight": "VA308",
            "fare_class": "Elevate",
            "fare_type": "One Way",
            "fare": 249
        },
        {
            "flight": "VA308",
            "fare_class": "Freedom",
            "fare_type": "One Way",
            "fare": 509
        },
        {
            "flight": "VA308",
            "fare_class": "Business",
            "fare_type": "One Way",
            "fare": 799
        },
        {
            "flight": "VA314",
            "fare_class": "Elevate",
            "fare_type": "One Way",
            "fare": 305
        },
        {
            "flight": "VA314",
            "fare_class": "Freedom",
            "fare_type": "One Way",
            "fare": 509
        },
        {
            "flight": "VA314",
            "fare_class": "Business",
            "fare_type": "One Way",
            "fare": 1599
        },
        {
            "flight": "VA318",
            "fare_class": "Elevate",
            "fare_type": "One Way",
            "fare": 249
        },
        {
            "flight": "VA318",
            "fare_class": "Freedom",
            "fare_type": "One Way",
            "fare": 509
        },
        {
            "flight": "VA318",
            "fare_class": "Business",
            "fare_type": "One Way",
            "fare": 799
        },
        {
            "flight": "VA322",
            "fare_class": "Elevate",
            "fare_type": "One Way",
            "fare": 249
        },
        {
            "flight": "VA322",
            "fare_class": "Freedom",
            "fare_type": "One Way",
            "fare": 509
        },
        {
            "flight": "VA322",
            "fare_class": "Business",
            "fare_type": "One Way",
            "fare": 799
        },
        {
            "flight": "VA324",
            "fare_class": "Elevate",
            "fare_type": "One Way",
            "fare": 249
        },
        {
            "flight": "VA324",
            "fare_class": "Freedom",
            "fare_type": "One Way",
            "fare": 509
        },
        {
            "flight": "VA324",
            "fare_class": "Business",
            "fare_type": "One Way",
            "fare": 799
        },
        {
            "flight": "VA326",
            "fare_class": "Elevate",
            "fare_type": "One Way",
            "fare": 249
        },
        {
            "flight": "VA326",
            "fare_class": "Freedom",
            "fare_type": "One Way",
            "fare": 509
        },
        {
            "flight": "VA326",
            "fare_class": "Business",
            "fare_type": "One Way",
            "fare": 799
        },
        {
            "flight": "VA328",
            "fare_class": "Elevate",
            "fare_type": "One Way",
            "fare": 375
        },
        {
            "flight": "VA328",
            "fare_class": "Freedom",
            "fare_type": "One Way",
            "fare": 509
        },
        {
            "flight": "VA328",
            "fare_class": "Business",
            "fare_type": "One Way",
            "fare": 799
        },
        {
            "flight": "VA332",
            "fare_class": "Elevate",
            "fare_type": "One Way",
            "fare": 375
        },
        {
            "flight": "VA332",
            "fare_class": "Freedom",
            "fare_type": "One Way",
            "fare": 509
        },
        {
            "flight": "VA332",
            "fare_class": "Business",
            "fare_type": "One Way",
            "fare": 1599
        },
        {
            "flight": "VA334",
            "fare_class": "Elevate",
            "fare_type": "One Way",
            "fare": 375
        },
        {
            "flight": "VA334",
            "fare_class": "Freedom",
            "fare_type": "One Way",
            "fare": 509
        },
        {
            "flight": "VA334",
            "fare_class": "Business",
            "fare_type": "One Way",
            "fare": 999
        },
        {
            "flight": "VA336",
            "fare_class": "Elevate",
            "fare_type": "One Way",
            "fare": 375
        },
        {
            "flight": "VA336",
            "fare_class": "Freedom",
            "fare_type": "One Way",
            "fare": 569
        },
        {
            "flight": "VA336",
            "fare_class": "Business",
            "fare_type": "One Way",
            "fare": 999
        },
        {
            "flight": "VA342",
            "fare_class": "Elevate",
            "fare_type": "One Way",
            "fare": 375
        },
        {
            "flight": "VA342",
            "fare_class": "Freedom",
            "fare_type": "One Way",
            "fare": 509
        },
        {
            "flight": "VA342",
            "fare_class": "Business",
            "fare_type": "One Way",
            "fare": 799
        },
        {
            "flight": "VA346",
            "fare_class": "Elevate",
            "fare_type": "One Way",
            "fare": 375
        },
        {
            "flight": "VA346",
            "fare_class": "Freedom",
            "fare_type": "One Way",
            "fare": 509
        },
        {
            "flight": "VA346",
            "fare_class": "Business",
            "fare_type": "One Way",
            "fare": 799
        },
        {
            "flight": "VA352",
            "fare_class": "Elevate",
            "fare_type": "One Way",
            "fare": 305
        },
        {
            "flight": "VA352",
            "fare_class": "Freedom",
            "fare_type": "One Way",
            "fare": 509
        },
        {
            "flight": "VA352",
            "fare_class": "Business",
            "fare_type": "One Way",
            "fare": 799
        },
        {
            "flight": "VA356",
            "fare_class": "Getaway",
            "fare_type": "One Way",
            "fare": 205
        },
        {
            "flight": "VA356",
            "fare_class": "Elevate",
            "fare_type": "One Way",
            "fare": 249
        },
        {
            "flight": "VA356",
            "fare_class": "Freedom",
            "fare_type": "One Way",
            "fare": 509
        },
        {
            "flight": "VA356",
            "fare_class": "Business",
            "fare_type": "One Way",
            "fare": 799
        },
        {
            "flight": "VA358",
            "fare_class": "Getaway",
            "fare_type": "One Way",
            "fare": 205
        },
        {
            "flight": "VA358",
            "fare_class": "Elevate",
            "fare_type": "One Way",
            "fare": 249
        },
        {
            "flight": "VA358",
            "fare_class": "Freedom",
            "fare_type": "One Way",
            "fare": 509
        },
        {
            "flight": "VA358",
            "fare_class": "Business",
            "fare_type": "One Way",
            "fare": 799
        }
    ]
}
